<svg width="180" height="181" viewBox="0 0 180 181" fill="none" xmlns="http://www.w3.org/2000/svg">
<path d="M129.42 49.6496C126.961 53.5937 123.202 52.8977 120.232 56.0994C121.949 51.1808 124.409 47.9791 123.991 42.4573C123.713 38.2348 122.413 33.8731 119.165 30.9962C123.852 36.9356 123.063 45.9374 119.258 52.0624C118.84 48.2111 113.365 40.6477 115.732 37.3068C113.226 40.1373 115.917 43.8958 116.892 46.8191C118.562 52.016 117.356 55.8674 116.428 60.9251C114.85 58.4194 111.741 55.0321 111.927 51.9232C112.019 50.8096 113.04 49.6496 113.365 48.5823C114.107 45.891 113.179 45.0558 112.715 42.6429C112.205 39.9517 112.762 37.8172 111.323 35.1723C110.627 33.9195 109.003 32.8522 108.493 31.6922C107.24 28.7689 109.792 28.0729 109.607 25.0104C109.189 27.7017 106.08 28.5833 106.776 31.553C107.518 34.7547 110.627 36.5644 110.674 40.5085C106.358 37.0748 100.141 38.2812 100.79 31.3674C101.115 28.0265 103.714 23.7112 100.837 20.8343C103.435 24.6856 99.1198 30.1146 99.5374 34.3835C95.9181 30.3002 95.5933 24.3608 92.438 19.9526C95.4077 25.5672 94.9901 33.4091 100.465 37.5388C92.1596 36.7036 91.9276 30.0682 86.5914 25.5208C82.8793 22.3191 76.5223 22.7367 71.8821 22.2263C76.8007 23.2935 83.2505 23.3399 86.545 27.5161C88.6795 30.2538 89.5611 33.5947 92.1596 36.0539C95.5933 39.3484 99.955 39.7197 104.502 39.8125V39.7197C107.147 40.8797 110.859 42.4573 111.045 45.7982C111.231 48.9071 108.168 50.9024 109.189 54.3825C104.456 49.1391 99.027 48.2575 93.2732 44.8702C89.4683 42.6429 84.4569 38.0028 82.0905 34.2443C80.9304 32.4346 80.5592 29.5113 78.6568 28.2585C78.1463 27.9337 73.2742 27.0521 73.135 27.3305C73.4598 26.9129 78.0999 28.5369 78.7032 29.2329C80.3736 31.089 80.6984 34.2443 82.3225 36.4715C79.6312 35.1723 78.6568 37.0748 76.2439 37.0284C74.1094 36.982 69.7941 34.5691 68.0772 33.2234C66.314 31.8314 65.2003 29.6505 62.8803 29.0473C61.581 28.7225 60.1426 29.1401 58.7969 29.0009C60.189 29.5577 61.7666 29.3257 63.1123 30.0217C64.8755 30.9034 65.6643 33.177 67.01 34.5227C63.8547 36.7036 61.1634 37.678 57.3121 37.1212C54.296 36.7036 52.2079 35.5435 49.2382 37.0284C52.2079 36.1003 54.2496 37.2604 57.0801 37.91C61.349 38.8844 64.3651 37.8636 67.9844 35.4043C69.7013 36.7036 71.7429 37.3996 73.6918 38.2348C68.2164 40.6477 61.813 44.4062 55.7344 43.107C51.4655 42.2253 47.5678 41.7613 44.2733 45.3342C46.5006 43.2462 49.6095 42.4109 52.5791 42.9678C57.5441 43.8958 60.0962 44.9166 65.2467 43.1998C61.5346 48.9535 58.8897 53.4545 51.3263 53.5009C47.5214 53.5473 43.5309 50.8096 39.9579 53.0369C42.9276 51.8304 45.9901 53.5937 48.8206 54.3361C42.9276 56.9346 38.7515 62.9668 38.6123 69.4166C39.3083 62.7348 44.1805 56.749 50.7231 54.9393C52.6719 54.3825 54.76 54.5217 56.7089 54.0577C62.3698 52.7121 64.7363 47.0511 67.706 42.5037L67.5668 42.4109C70.9541 41.2509 76.0583 37.8172 79.6312 37.8636C83.0185 37.9564 87.0554 41.9933 89.3291 44.1278C83.7609 43.1998 79.8632 45.1022 75.3623 48.1647L75.5015 47.7935C69.6085 45.8446 67.1492 50.0208 63.9939 53.6401C58.9825 59.3475 49.8879 60.5075 52.7183 69.5094C46.8718 68.4885 44.1341 66.9573 43.4845 60.6467C43.7165 66.4469 45.8045 67.8389 50.6767 69.7878C53.0896 70.7622 53.368 70.9942 54.0176 73.8247C54.4352 75.588 54.7136 77.3048 54.6672 79.1145C55.0384 76.1912 54.3888 73.2679 53.6928 70.4374C58.3793 71.6902 58.1473 75.1704 57.3585 79.1609C56.3377 84.1722 56.8017 88.9516 60.6994 92.6637C51.1407 91.4109 51.0943 82.4554 44.9229 77.0264C49.563 81.945 49.7487 89.694 56.3841 92.8493C60.6066 94.891 65.3395 94.3806 69.8869 94.2878C74.8982 94.1949 79.2136 95.4942 84.0857 96.3758C78.1463 98.6495 72.1142 102.037 65.5251 101.434C60.4674 100.97 56.1985 97.6287 51.0943 97.3503C58.8433 98.4175 63.7155 103.846 72.1606 102.222C67.8452 104.125 63.3907 105.703 58.9361 107.28C63.2515 106.259 67.474 105.099 71.6501 103.707C76.2439 102.13 80.2808 102.362 85.153 102.454C82.8329 103.29 80.188 103.707 78.0999 105.146C76.2903 106.399 75.1302 108.44 73.3206 109.739C78.6104 106.816 83.0185 102.454 89.7467 102.547V102.454C90.9531 102.083 92.206 101.619 93.5052 101.202C90.8603 104.867 90.1179 107.373 85.617 108.672C81.0696 110.018 77.2183 111.642 73.135 114.194C77.8215 112.06 82.3689 110.157 87.5658 110.064C92.8556 109.971 97.4493 110.389 102.182 107.466C99.3054 111.827 97.2637 113.498 92.4844 115.54C97.9598 114.287 100.697 112.292 103.946 107.605C107.333 102.686 111.091 98.5103 113.504 92.9421C113.551 96.3294 112.762 101.387 111.091 104.403C109.56 107.234 106.915 108.811 106.266 112.292C107.054 110.157 108.446 108.858 109.931 107.234C112.159 104.867 112.994 103.011 113.968 99.8559C114.432 100.83 115.453 101.341 116.242 101.944C114.943 103.754 114.989 105.795 114.479 107.883C115.453 106.167 115.685 104.218 117.124 102.733C117.866 103.522 118.191 104.496 118.098 105.517C118.516 104.403 118.376 103.197 117.773 102.13C120.372 99.6703 121.578 96.8862 120.557 93.2669C122.97 93.7773 124.362 93.4061 124.501 96.1902C124.594 97.9535 122.274 100.552 120.975 101.341C125.476 100.274 127.053 95.5406 125.197 91.7357C122.135 85.5643 120.789 80.2281 120.047 73.3143C119.583 68.7206 118.748 62.2243 121.439 58.0482C123.109 55.4033 126.404 55.4033 128.353 53.2225C129.42 52.016 129.884 49.6496 130.394 48.1647C130.441 48.0719 130.07 48.6287 129.42 49.6496C129.142 50.16 130.07 48.6287 129.42 49.6496ZM77.4503 92.8493C70.6757 91.7821 69.3301 85.1003 63.7619 82.2698C67.4276 84.8683 68.634 89.5548 72.0213 92.4317C69.1445 92.4781 64.8755 93.5917 62.3698 92.2461C59.8178 90.854 58.2865 86.9099 58.0081 84.1722C57.4513 78.3721 61.9986 71.2726 53.5536 69.5094C52.7647 66.4469 52.3007 64.962 54.3424 62.5956C56.4305 60.2291 60.1426 58.4658 62.6947 56.5634C66.4068 53.7329 68.5412 48.1647 74.063 49.0463C70.8613 51.4592 69.6085 54.1041 67.938 57.6306C67.1028 59.4403 66.314 61.2035 64.3187 61.9459C68.4948 60.8323 69.4229 54.6609 72.3462 51.9232C76.0583 48.4431 81.8121 45.2878 87.009 45.7982C95.1757 46.5871 103.435 51.4128 108.493 57.8162C115.546 66.8181 113.783 79.9497 106.126 87.9772C98.563 95.9582 87.0554 94.3806 77.4503 92.8493C76.2439 92.6637 78.6568 93.0349 77.4503 92.8493ZM83.3897 100.691C81.348 100.691 79.3064 100.645 77.2647 100.738C81.9977 99.1135 85.8954 97.0254 90.8603 97.0254C94.0156 97.0254 97.0781 96.1902 100.001 95.1694C95.7789 99.8095 89.2827 100.691 83.3897 100.691C82.3689 100.691 85.4314 100.691 83.3897 100.691ZM105.616 100.645C101.208 106.259 95.7325 107.976 88.8651 108.301C92.7164 106.538 93.6908 101.805 97.3101 99.8559L97.2173 99.7167C99.0734 98.8815 100.605 97.7215 101.997 96.2366C101.44 99.7167 102.554 101.387 98.7486 103.382C102.461 102.176 101.95 100.506 103.064 97.3503C104.317 93.8237 106.962 93.4061 110.349 92.1997C109.143 95.1694 107.611 98.0927 105.616 100.645C104.688 101.898 106.59 99.4383 105.616 100.645ZM117.912 92.7565C119.444 95.7726 119.026 98.4175 116.984 101.016C114.711 98.3711 115.778 95.7262 115.917 92.2461C116.381 92.2925 117.773 92.3853 117.912 92.7565C118.516 93.8701 117.912 92.7101 117.912 92.7565Z" fill="#F6F1EB"/>
<path d="M134.988 41.2045C133.411 41.7149 129.374 43.6637 130.627 47.4687C131.508 46.6334 132.761 45.2878 133.643 43.9886C133.643 43.9886 133.318 45.7518 131.508 48.3503C136.984 48.2111 134.988 41.2045 134.988 41.2045Z" fill="#BDC885"/>
<path d="M128.167 39.4875C126.868 40.5084 123.852 43.8493 126.404 46.9118C126.914 45.7981 127.61 44.1277 127.935 42.5964C127.935 42.5964 128.306 44.3597 127.517 47.4686C132.621 45.2877 128.167 39.4875 128.167 39.4875Z" fill="#BDC885"/>
<path d="M124.501 25.1495C123.202 26.1704 120.186 29.5113 122.738 32.5738C123.249 31.4601 123.945 29.7897 124.269 28.2584C124.269 28.2584 124.641 30.0217 123.852 33.1306C128.91 30.9033 124.501 25.1495 124.501 25.1495Z" fill="#BDC885"/>
<path d="M116.149 21.855C114.525 22.2262 110.395 23.943 111.416 27.8408C112.344 27.0519 113.69 25.7991 114.664 24.5927C114.664 24.5927 114.247 26.3559 112.251 28.8152C117.727 28.9544 116.149 21.855 116.149 21.855Z" fill="#BDC885"/>
<path d="M129.095 32.7594C127.425 32.8058 123.063 33.7338 123.295 37.678C124.362 37.0747 125.894 36.1003 127.1 35.0795C127.1 35.0795 126.358 36.7035 123.898 38.7452C129.234 39.998 129.095 32.7594 129.095 32.7594Z" fill="#BDC885"/>
<path d="M119.954 21.9015C118.655 22.9223 115.639 26.2632 118.191 29.3257C118.701 28.2121 119.397 26.5416 119.722 25.0104C119.722 25.0104 120.093 26.7736 119.304 29.8825C124.409 27.7017 119.954 21.9015 119.954 21.9015Z" fill="#BDC885"/>
<path d="M109.931 17.2148C108.632 18.2357 105.616 21.5766 108.168 24.6391C108.678 23.5254 109.374 21.855 109.699 20.3237C109.699 20.3237 110.07 22.087 109.281 25.1959C114.339 23.015 109.931 17.2148 109.931 17.2148Z" fill="#BDC885"/>
<path d="M105.431 23.1079C104.131 24.1287 101.115 27.4696 103.667 30.5321C104.178 29.4185 104.874 27.7481 105.199 26.2168C105.199 26.2168 105.57 27.9801 104.781 31.089C109.839 28.8617 105.431 23.1079 105.431 23.1079Z" fill="#BDC885"/>
<path d="M98.2846 19.1174C96.9854 20.1383 93.9693 23.4792 96.5214 26.5417C97.0318 25.428 97.7278 23.7576 98.0526 22.2263C98.0526 22.2263 98.4238 23.9896 97.635 27.0985C102.693 24.9176 98.2846 19.1174 98.2846 19.1174Z" fill="#BDC885"/>
<path d="M42.5566 41.5756C44.2271 41.7148 48.6816 41.3436 48.9136 37.3531C47.8 37.8171 46.1295 38.6059 44.8303 39.4412C44.8303 39.4412 45.7583 37.9099 48.4496 36.1931C43.2991 34.337 42.5566 41.5756 42.5566 41.5756Z" fill="#BDC885"/>
<path d="M38.6587 50.2528C40.3291 50.392 44.7837 50.0208 45.0157 46.0303C43.9021 46.4943 42.2316 47.2831 40.9324 48.1183C40.9324 48.1183 41.8604 46.5871 44.5517 44.8702C39.4011 42.9678 38.6587 50.2528 38.6587 50.2528Z" fill="#BDC885"/>
<path d="M38.1947 78.14C39.494 77.0727 42.4636 73.7318 39.8652 70.7157C39.4012 71.8294 38.7051 73.5462 38.3803 75.0775C38.3803 75.0775 38.0091 73.3142 38.7515 70.2053C33.6938 72.4326 38.1947 78.14 38.1947 78.14Z" fill="#BDC885"/>
<path d="M35.0857 64.6371C36.7097 64.1731 40.7002 62.2243 39.5402 58.4657C38.6586 59.301 37.3593 60.6002 36.4777 61.8994C36.4777 61.8994 36.8025 60.1362 38.705 57.5841C33.1832 57.6305 35.0857 64.6371 35.0857 64.6371Z" fill="#BDC885"/>
<path d="M47.3359 49.0927C49.0064 49.2319 53.4609 48.8607 53.6929 44.8702C52.5793 45.3342 50.9088 46.123 49.6096 46.9583C49.6096 46.9583 50.5376 45.427 53.2289 43.7102C48.032 41.8541 47.3359 49.0927 47.3359 49.0927Z" fill="#BDC885"/>
<path d="M44.3197 72.6182C44.8302 71.0406 45.5726 66.6325 41.7677 65.426C41.9533 66.6325 42.2781 68.4421 42.8349 69.8806C42.8349 69.8806 41.5821 68.5813 40.5612 65.5652C37.4987 70.159 44.3197 72.6182 44.3197 72.6182Z" fill="#BDC885"/>
<path d="M33.9722 57.9554C35.6426 58.0946 40.0972 57.7234 40.3292 53.7329C39.2155 54.1969 37.5451 54.9857 36.2458 55.8209C36.2458 55.8209 37.1739 54.2897 39.8652 52.5728C34.7146 50.7168 33.9722 57.9554 33.9722 57.9554Z" fill="#BDC885"/>
<path d="M52.9043 49.3247C54.2963 50.2527 58.3333 52.1088 60.5141 48.7679C59.3077 48.6287 57.498 48.4895 55.9204 48.5823C55.9204 48.5823 57.498 47.7007 60.6533 47.5151C57.1268 43.3853 52.9043 49.3247 52.9043 49.3247Z" fill="#BDC885"/>
<path d="M45.7119 60.6004C47.104 61.5284 51.1409 63.3844 53.3218 60.0435C52.1153 59.9043 50.3057 59.7651 48.728 59.8579C48.728 59.8579 50.3057 58.9763 53.461 58.7907C49.9344 54.661 45.7119 60.6004 45.7119 60.6004Z" fill="#BDC885"/>
<path d="M103.157 13.2244C101.857 14.2452 98.8414 17.5861 101.393 20.6486C101.904 19.535 102.6 17.8645 102.925 16.3333C102.925 16.3333 103.296 18.0965 102.507 21.2054C107.565 19.0245 103.157 13.2244 103.157 13.2244Z" fill="#BDC885"/>
<path d="M94.5722 11.9716C93.273 12.9924 90.2569 16.3333 92.809 19.3958C93.3194 18.2822 94.0154 16.6117 94.3402 15.0805C94.3402 15.0805 94.7114 16.8437 93.9226 19.9526C98.9804 17.7717 94.5722 11.9716 94.5722 11.9716Z" fill="#BDC885"/>
<path d="M87.3342 18.1429C86.6845 19.6742 85.6173 24.0359 89.3294 25.4744C89.2366 24.2679 89.051 22.4583 88.6334 20.927C88.6334 20.927 89.7934 22.3191 90.5823 25.3816C93.9696 21.1126 87.3342 18.1429 87.3342 18.1429Z" fill="#BDC885"/>
<path d="M86.0343 15.0341C84.3639 15.2661 80.1414 16.6117 80.791 20.5558C81.7654 19.8598 83.2503 18.7462 84.3175 17.5861C84.3175 17.5861 83.7607 19.303 81.5334 21.5767C86.916 22.2727 86.0343 15.0341 86.0343 15.0341Z" fill="#BDC885"/>
<path d="M65.8965 21.5766C66.1285 23.2471 67.4277 27.516 71.3719 26.8664C70.6758 25.892 69.5622 24.4071 68.4486 23.3399C68.4486 23.3399 70.119 23.9431 72.3927 26.1704C73.1351 20.7414 65.8965 21.5766 65.8965 21.5766Z" fill="#BDC885"/>
<path d="M65.7571 69.927C66.9635 68.7669 69.7012 65.2868 66.9635 62.4099C66.5459 63.57 65.9891 65.2868 65.7571 66.8645C65.7571 66.8645 65.2467 65.1476 65.8035 61.9923C60.9313 64.498 65.7571 69.927 65.7571 69.927Z" fill="#BDC885"/>
<path d="M101.672 43.1069C101.904 44.7774 103.203 49.0463 107.147 48.3967C106.451 47.4223 105.338 45.9374 104.224 44.8702C104.224 44.8702 105.894 45.4734 108.168 47.7007C108.911 42.2717 101.672 43.1069 101.672 43.1069Z" fill="#BDC885"/>
<path d="M119.954 35.4971C118.655 36.5179 115.639 39.8588 118.191 42.9213C118.701 41.8077 119.397 40.1372 119.722 38.606C119.722 38.606 120.093 40.3692 119.304 43.4781C124.409 41.2973 119.954 35.4971 119.954 35.4971Z" fill="#BDC885"/>
<path d="M113.875 29.1865C113.133 30.6714 111.787 34.9403 115.36 36.6572C115.36 35.4507 115.267 33.5947 114.942 32.0634C114.942 32.0634 116.01 33.5019 116.613 36.6572C120.325 32.5738 113.875 29.1865 113.875 29.1865Z" fill="#BDC885"/>
<path d="M73.367 14.3845C72.6246 15.8694 71.2789 20.1383 74.8518 21.8552C74.8518 20.6487 74.759 18.7927 74.4342 17.2614C74.4342 17.2614 75.5014 18.6999 76.1047 21.8552C79.8168 17.7718 73.367 14.3845 73.367 14.3845Z" fill="#BDC885"/>
<path d="M51.6509 32.3417C53.1357 33.1306 57.3119 34.6154 59.1679 31.0889C57.9615 31.0889 56.1054 31.0889 54.5742 31.3673C54.5742 31.3673 56.059 30.3465 59.2143 29.8361C55.2238 26.0311 51.6509 32.3417 51.6509 32.3417Z" fill="#BDC885"/>
<path d="M82.6935 28.9081C82.3687 30.5321 82.1367 34.9867 86.0808 35.7291C85.756 34.5691 85.1992 32.8058 84.5032 31.4138C84.5032 31.4138 85.8952 32.5274 87.2873 35.4043C89.793 30.5321 82.6935 28.9081 82.6935 28.9081Z" fill="#BDC885"/>
<path d="M90.3966 36.054C90.0718 37.678 89.8398 42.1325 93.7839 42.875C93.4591 41.7149 92.9023 39.9517 92.2063 38.5596C92.2063 38.5596 93.5983 39.6733 94.9904 42.5502C97.496 37.678 90.3966 36.054 90.3966 36.054Z" fill="#BDC885"/>
<path d="M73.367 28.3512C72.6246 29.836 71.2789 34.105 74.8518 35.8218C74.8518 34.6154 74.759 32.7593 74.4342 31.2281C74.4342 31.2281 75.5014 32.6665 76.1047 35.8218C79.8168 31.7385 73.367 28.3512 73.367 28.3512Z" fill="#BDC885"/>
<path d="M74.8979 44.0349C76.3364 44.9166 80.4661 46.587 82.4614 43.1069C81.2549 43.0141 79.3989 42.9677 77.8676 43.1533C77.8676 43.1533 79.3989 42.2253 82.5542 41.8541C78.7957 37.91 74.8979 44.0349 74.8979 44.0349Z" fill="#BDC885"/>
<path d="M57.7295 62.2708C59.1679 63.1524 63.2977 64.8229 65.2929 61.3428C64.0865 61.25 62.2304 61.2036 60.6992 61.3892C60.6992 61.3892 62.2304 60.4611 65.3857 60.0899C61.6272 56.0994 57.7295 62.2708 57.7295 62.2708Z" fill="#BDC885"/>
<path d="M57.6834 19.9062C56.941 21.3911 55.5953 25.66 59.1682 27.3769C59.1682 26.1704 59.0754 24.3144 58.7506 22.7831C58.7506 22.7831 59.8178 24.2216 60.4211 27.3769C64.1332 23.2936 57.6834 19.9062 57.6834 19.9062Z" fill="#BDC885"/>
<path d="M46.5935 28.3512C45.8511 29.836 44.5055 34.105 48.0784 35.8218C48.0784 34.6154 47.9856 32.7593 47.6608 31.2281C47.6608 31.2281 48.728 32.6665 49.3312 35.8218C53.0433 31.7385 46.5935 28.3512 46.5935 28.3512Z" fill="#BDC885"/>
<path d="M136.056 49.2319C134.385 49.1855 129.977 49.7887 129.931 53.7792C130.998 53.2688 132.668 52.3872 133.921 51.4591C133.921 51.4591 133.04 53.0368 130.487 54.8928C135.684 56.5169 136.056 49.2319 136.056 49.2319Z" fill="#BDC885"/>
<path d="M50.4914 80.1817C51.619 80.1817 52.533 79.2676 52.533 78.1401C52.533 77.0125 51.619 76.0984 50.4914 76.0984C49.3638 76.0984 48.4497 77.0125 48.4497 78.1401C48.4497 79.2676 49.3638 80.1817 50.4914 80.1817Z" fill="#BDC885"/>
<path d="M54.47 86.1966C55.513 85.7681 56.0112 84.5752 55.5827 83.5322C55.1542 82.4892 53.9613 81.991 52.9183 82.4195C51.8753 82.848 51.3771 84.0408 51.8056 85.0838C52.2341 86.1269 53.427 86.625 54.47 86.1966Z" fill="#BDC885"/>
<path d="M83.3898 115.447C84.5174 115.447 85.4315 114.533 85.4315 113.405C85.4315 112.277 84.5174 111.363 83.3898 111.363C82.2622 111.363 81.3481 112.277 81.3481 113.405C81.3481 114.533 82.2622 115.447 83.3898 115.447Z" fill="#BDC885"/>
<path d="M59.7664 103.391C59.9564 102.279 59.2094 101.224 58.098 101.034C56.9865 100.844 55.9315 101.591 55.7415 102.703C55.5515 103.814 56.2985 104.869 57.4099 105.059C58.5214 105.249 59.5764 104.502 59.7664 103.391Z" fill="#BDC885"/>
<path d="M48.3382 91.2311C49.1913 90.88 49.5982 89.9038 49.2471 89.0507C48.896 88.1976 47.9197 87.7907 47.0666 88.1418C46.2135 88.4929 45.8066 89.4692 46.1577 90.3223C46.5089 91.1754 47.4851 91.5823 48.3382 91.2311Z" fill="#BDC885"/>
<path d="M51.6006 95.3691C52.2977 94.7648 52.3731 93.7097 51.7688 93.0125C51.1645 92.3154 50.1094 92.24 49.4123 92.8443C48.7151 93.4486 48.6398 94.5037 49.2441 95.2008C49.8483 95.898 50.9034 95.9733 51.6006 95.3691Z" fill="#BDC885"/>
<path d="M69.0518 96.979C69.0518 97.4431 68.6806 97.8607 68.1702 97.8607C67.7062 97.8607 67.2886 97.4895 67.2886 96.979C67.2886 96.515 67.6598 96.0974 68.1702 96.0974C68.6342 96.0974 69.0518 96.515 69.0518 96.979Z" fill="#BDC885"/>
<path d="M73.6919 99.299C74.4863 99.299 75.1303 98.655 75.1303 97.8606C75.1303 97.0661 74.4863 96.4221 73.6919 96.4221C72.8974 96.4221 72.2534 97.0661 72.2534 97.8606C72.2534 98.655 72.8974 99.299 73.6919 99.299Z" fill="#BDC885"/>
<path d="M61.5811 79.0216C61.5811 79.4857 61.2099 79.9033 60.6995 79.9033C60.2355 79.9033 59.8179 79.5321 59.8179 79.0216C59.8179 78.5576 60.1891 78.14 60.6995 78.14C61.1635 78.1864 61.5811 78.5576 61.5811 79.0216Z" fill="#BDC885"/>
<path d="M62.4161 96.6077C62.4161 97.0717 62.0449 97.4893 61.5345 97.4893C61.024 97.4893 60.6528 97.1181 60.6528 96.6077C60.6528 96.1437 61.024 95.7261 61.5345 95.7261C62.0449 95.7261 62.4161 96.0973 62.4161 96.6077Z" fill="#BDC885"/>
<path d="M105.801 96.6077C105.801 97.0717 105.43 97.4893 104.92 97.4893C104.456 97.4893 104.038 97.1181 104.038 96.6077C104.038 96.1437 104.409 95.7261 104.92 95.7261C105.43 95.7261 105.801 96.0973 105.801 96.6077Z" fill="#BDC885"/>
<path d="M109.05 105.099C109.05 105.563 108.679 105.981 108.168 105.981C107.704 105.981 107.287 105.61 107.287 105.099C107.287 104.635 107.658 104.218 108.168 104.218C108.679 104.218 109.05 104.635 109.05 105.099Z" fill="#BDC885"/>
<path d="M122.599 103.058C122.599 103.522 122.228 103.939 121.718 103.939C121.254 103.939 120.836 103.568 120.836 103.058C120.836 102.594 121.207 102.176 121.718 102.176C122.228 102.176 122.599 102.547 122.599 103.058Z" fill="#BDC885"/>
<path d="M123.481 97.4894C123.481 97.9534 123.109 98.3711 122.599 98.3711C122.135 98.3711 121.717 97.9999 121.717 97.4894C121.717 97.0254 122.089 96.6078 122.599 96.6078C123.109 96.6078 123.481 96.979 123.481 97.4894Z" fill="#BDC885"/>
<path d="M46.5933 82.2233C46.5933 82.6873 46.2221 83.1049 45.7117 83.1049C45.2477 83.1049 44.8301 82.7337 44.8301 82.2233C44.8301 81.7593 45.2013 81.3417 45.7117 81.3417C46.2221 81.3417 46.5933 81.7593 46.5933 82.2233Z" fill="#BDC885"/>
<path d="M73.3668 105.099C73.3668 105.563 72.9956 105.981 72.4851 105.981C72.0211 105.981 71.6035 105.61 71.6035 105.099C71.6035 104.635 71.9747 104.218 72.4851 104.218C72.9956 104.218 73.3668 104.635 73.3668 105.099Z" fill="#BDC885"/>
<path d="M87.566 106.909C87.566 107.373 87.1948 107.79 86.6844 107.79C86.2204 107.79 85.8027 107.419 85.8027 106.909C85.8027 106.445 86.174 106.027 86.6844 106.027C87.1484 106.027 87.566 106.398 87.566 106.909Z" fill="#BDC885"/>
<path d="M64.5045 103.058C64.5045 103.522 64.1333 103.939 63.6228 103.939C63.1588 103.939 62.7412 103.568 62.7412 103.058C62.7412 102.594 63.1124 102.176 63.6228 102.176C64.0869 102.176 64.5045 102.547 64.5045 103.058Z" fill="#BDC885"/>
<path d="M88.6793 98.8351C88.6793 99.2991 88.3081 99.7167 87.7976 99.7167C87.3336 99.7167 86.916 99.3455 86.916 98.8351C86.916 98.3711 87.2872 97.9535 87.7976 97.9535C88.3081 97.9535 88.6793 98.3711 88.6793 98.8351Z" fill="#BDC885"/>
<path d="M81.5802 107.791C81.5802 108.255 81.2089 108.672 80.6985 108.672C80.2345 108.672 79.8169 108.301 79.8169 107.791C79.8169 107.327 80.1881 106.909 80.6985 106.909C81.2089 106.909 81.5802 107.28 81.5802 107.791Z" fill="#BDC885"/>
<path d="M79.5845 113.405C79.5845 113.869 79.2133 114.287 78.7029 114.287C78.1925 114.287 77.8213 113.915 77.8213 113.405C77.8213 112.941 78.1925 112.523 78.7029 112.523C79.2133 112.523 79.5845 112.895 79.5845 113.405Z" fill="#BDC885"/>
<path d="M71.1397 111.735C71.1397 112.199 70.7685 112.616 70.2581 112.616C69.7477 112.616 69.3765 112.245 69.3765 111.735C69.3765 111.271 69.7477 110.853 70.2581 110.853C70.7685 110.853 71.1397 111.271 71.1397 111.735Z" fill="#BDC885"/>
<path d="M70.2337 108.623C70.4109 107.875 69.9481 107.125 69.1999 106.948C68.4518 106.771 67.7017 107.234 67.5245 107.982C67.3473 108.73 67.8101 109.48 68.5582 109.657C69.3063 109.834 70.0565 109.372 70.2337 108.623Z" fill="#BDC885"/>
<path d="M64.7003 89.3486C65.4081 88.7569 65.5022 87.7034 64.9104 86.9957C64.3187 86.2879 63.2652 86.1938 62.5575 86.7855C61.8497 87.3772 61.7556 88.4307 62.3473 89.1385C62.939 89.8463 63.9925 89.9404 64.7003 89.3486Z" fill="#BDC885"/>
<path d="M90.7627 113.787C90.9738 112.889 90.417 111.989 89.5188 111.778C88.6207 111.567 87.7215 112.124 87.5103 113.022C87.2991 113.92 87.856 114.82 88.7541 115.031C89.6522 115.242 90.5515 114.685 90.7627 113.787Z" fill="#BDC885"/>
<path d="M104.328 113.622C104.458 112.709 103.822 111.863 102.909 111.733C101.995 111.604 101.15 112.239 101.02 113.152C100.89 114.066 101.526 114.912 102.439 115.041C103.352 115.171 104.198 114.536 104.328 113.622Z" fill="#BDC885"/>
<path d="M114.647 109.997C114.802 109.088 114.191 108.225 113.282 108.07C112.372 107.914 111.509 108.526 111.354 109.435C111.199 110.344 111.81 111.208 112.719 111.363C113.629 111.518 114.492 110.907 114.647 109.997Z" fill="#BDC885"/>
<path d="M96.336 105.563C97.2585 105.563 98.0064 104.815 98.0064 103.893C98.0064 102.97 97.2585 102.222 96.336 102.222C95.4134 102.222 94.6655 102.97 94.6655 103.893C94.6655 104.815 95.4134 105.563 96.336 105.563Z" fill="#BDC885"/>
<path d="M92.7472 118.283C93.3995 117.63 93.3995 116.573 92.7471 115.92C92.0948 115.268 91.0371 115.268 90.3848 115.92C89.7324 116.573 89.7324 117.63 90.3848 118.283C91.0371 118.935 92.0948 118.935 92.7472 118.283Z" fill="#BDC885"/>
<path d="M49.3691 72.8601C49.5164 71.9493 48.8976 71.0915 47.9868 70.9442C47.0761 70.7969 46.2183 71.4157 46.071 72.3265C45.9236 73.2373 46.5425 74.095 47.4533 74.2424C48.364 74.3897 49.2218 73.7708 49.3691 72.8601Z" fill="#BDC885"/>
<path d="M87.1484 126.212C52.3474 126.212 24.0425 97.9071 24.0425 63.106C24.0425 28.3049 52.3474 0 87.1484 0C121.95 0 150.254 28.3049 150.254 63.106C150.254 97.9071 121.95 126.212 87.1484 126.212ZM87.1484 2.27367C53.6466 2.27367 26.3162 29.5577 26.3162 63.106C26.3162 96.6542 53.6002 123.938 87.1484 123.938C120.697 123.938 147.981 96.6542 147.981 63.106C147.981 29.5577 120.697 2.27367 87.1484 2.27367Z" fill="#F6F1EB"/>
<path d="M38.5195 150.202C38.3803 150.202 38.2875 150.109 38.2875 149.97C38.2875 149.598 38.9836 148.299 38.9836 147.696C38.9836 147.51 38.9372 147.417 38.798 147.417C37.0347 147.417 32.7194 154.285 31.0953 159.389C30.8169 159.807 30.0281 160.271 29.5641 160.271C29.4249 160.271 29.2857 160.178 29.2393 160.085C29.2393 158.786 29.6105 157.44 30.1209 157.255C31.4665 152.058 31.3737 152.197 31.6521 151.037C31.7449 150.758 31.7449 150.573 31.7449 150.434C31.7449 150.062 31.6057 150.109 31.6057 149.784C31.6057 149.691 31.6057 149.552 31.6985 149.366C32.4874 146.304 33.0906 145.283 34.761 145.283C35.0394 145.283 35.2714 145.376 35.2714 145.561C34.8538 146.629 32.8586 150.898 32.0233 154.749C32.9514 152.893 37.4987 145.422 40.1436 145.422C40.7468 145.422 41.0252 145.933 41.0252 146.536C41.0252 147.232 40.7468 148.113 40.1436 148.902C39.726 149.552 38.8908 150.202 38.5195 150.202Z" fill="#FA8E89"/>
<path d="M44.9695 145.469C45.0623 145.19 45.0623 144.958 45.0623 144.819C45.0623 144.541 44.9231 144.541 44.9231 144.309C44.9231 144.216 44.9695 144.077 45.0159 143.845C45.9903 140.736 46.5471 139.854 48.2176 139.854C48.5424 139.854 48.7744 139.947 48.8208 140.179C48.5424 140.828 47.568 143.056 46.5471 145.979H50.1664C50.9089 145.979 51.2337 146.072 51.2337 146.211C51.2337 146.768 47.8 147 46.2223 147C45.2015 149.877 43.8559 154.331 43.1598 157.162C43.067 157.626 42.9742 157.997 42.9742 158.229C42.9742 158.693 43.1598 158.879 43.3918 158.879C44.6911 158.879 46.6863 156.234 47.1504 156.234C47.2896 156.234 47.336 156.327 47.336 156.466C47.336 156.744 47.1504 157.162 46.9183 157.301C46.1295 157.997 43.4382 160.41 42.0926 160.41C41.443 160.41 41.211 159.946 41.211 159.343C41.211 158.322 41.8142 156.791 42.0926 155.816C43.1598 152.382 43.9487 149.227 44.5055 147.232C44.2735 147.278 42.835 147.371 41.9998 147.371C41.3502 147.371 41.1182 147.232 41.1182 147.046C41.1182 146.675 41.9998 146.072 42.4174 146.072H44.8303L44.9695 145.469Z" fill="#FA8E89"/>
<path d="M66.6391 147.881C66.6391 154.192 62.463 158.507 59.8181 158.507C58.5188 158.507 57.6372 157.533 57.6372 155.352C57.6372 154.842 57.6836 154.285 57.7764 153.635C58.1476 151.501 60.6069 143.473 63.9942 143.473H64.2726C64.2726 142.824 64.6902 142.174 65.3862 142.174C66.4999 142.267 66.0359 146.443 67.5207 146.629C68.0311 146.721 68.2167 146.861 68.2167 147.046C68.2167 147.232 67.9383 147.51 67.5207 147.742C67.1495 147.881 66.8247 147.881 66.6391 147.881ZM64.087 145.144C62.3238 145.144 59.8181 152.15 59.4469 154.006C59.3541 154.656 59.3077 155.166 59.3077 155.584C59.3077 156.883 59.7253 157.44 60.3749 157.44C62.1382 157.44 65.5719 152.939 65.5719 147.649C64.9686 147.278 64.4582 145.144 64.087 145.144Z" fill="#FA8E89"/>
<path d="M132.436 140.457C132.436 150.387 122.089 163.89 117.542 163.89C112.994 163.89 116.521 150.573 117.402 145.747C111.417 150.944 105.895 160.874 104.41 163.658V163.612C103.064 166.442 101.487 165.468 102.136 162.962C103.018 159.435 107.751 146.118 107.751 139.251C107.751 136.235 106.637 135.028 103.667 135.028C99.2129 135.028 88.2622 139.204 88.2622 147.046C88.2622 150.341 91.1855 152.707 94.1088 152.707C94.8048 152.707 96.336 152.568 97.0321 152.011C97.6353 151.547 98.1457 152.011 97.2177 152.614C96.104 153.31 94.4336 153.31 93.1343 153.31C90.0254 153.218 86.7773 150.666 86.7773 146.953C86.7773 139.436 97.1249 134.1 103.575 134.1C107.24 134.1 109.885 135.678 109.885 140.132C109.839 144.494 107.658 149.97 106.127 154.47C105.384 156.651 104.781 159.435 104.688 160.178C105.988 158.415 112.113 150.062 116.01 145.237C118.887 141.71 118.794 141.571 119.769 142.731C120.001 142.963 119.908 144.077 119.537 145.422C118.423 149.459 114.943 162.173 118.377 162.173C121.95 162.173 130.72 150.619 130.72 140.643C130.72 138.184 130.023 136.606 128.817 136.142C128.028 135.817 128.214 135.26 128.863 135.26C130.72 135.26 132.436 136.884 132.436 140.457Z" fill="#FA8E89"/>
<path d="M137.215 159.992C136.751 159.992 136.426 159.714 136.287 159.064C136.287 157.718 137.076 154.795 137.494 153.264C136.055 155.306 132.529 160.224 130.441 160.224C129.791 160.224 129.559 159.807 129.559 158.879C129.559 155.445 133.271 146.489 135.638 146.489H135.73L136.148 146.211C136.426 145.933 136.798 145.84 137.169 145.84C138.143 145.84 139.396 146.443 139.814 146.443C140.139 146.443 140.185 145.84 140.788 145.84C141.484 145.84 141.716 146.165 141.716 146.675C141.716 147.371 141.159 148.438 140.927 149.041C140.835 149.227 140.324 149.32 140.231 149.552C139.025 152.986 138.19 157.162 138.19 157.765C138.19 158.461 138.422 158.693 138.7 158.693C139.86 158.693 141.716 156.141 141.855 156.141C141.902 156.141 141.948 156.187 141.948 156.28C141.948 156.512 141.763 156.976 141.577 157.162C140.835 157.765 138.561 159.992 137.215 159.992ZM137.494 146.953C137.169 146.953 136.844 147 136.38 147.093C135.266 147.371 131.276 154.888 131.276 157.811C131.276 158.275 131.415 158.461 131.647 158.461C132.854 158.461 136.659 153.45 136.983 152.893C138.143 150.944 139.443 148.113 139.443 147.325C139.443 147.185 139.35 147.093 139.257 147.093H139.164C138.607 147.093 138.143 146.953 137.494 146.953Z" fill="#FA8E89"/>
<path d="M153.688 147.603C153.595 147.603 153.595 147.557 153.595 147.557C153.41 147.557 151.275 149.83 151.043 150.109C150.069 151.13 149.28 151.965 149.28 152.011C149.28 152.29 151.322 160.456 151.322 161.895C151.322 162.359 150.579 163.751 149.883 163.751C149.558 163.751 148.816 155.816 147.981 153.357C145.382 156.791 142.645 159.621 140.557 163.426C140.371 163.751 140.046 164.168 139.768 164.168C139.628 164.168 139.443 163.983 139.443 163.472C139.443 161.477 146.078 154.795 147.656 152.336C147.563 152.058 146.96 148.113 145.289 148.113C144.918 148.113 144.593 148.206 144.315 148.206C144.037 148.206 143.851 148.113 143.805 147.742C143.758 147.603 144.779 147 144.965 147C145.846 146.953 146.31 145.747 146.682 145.747H146.728C147.702 145.747 148.909 150.155 149.048 150.944C149.651 149.83 153.456 145.515 154.152 145.515C154.431 145.515 154.57 145.747 154.57 146.072C154.57 146.582 154.338 147.139 154.106 147.371C153.827 147.557 153.735 147.603 153.688 147.603Z" fill="#FA8E89"/>
<path d="M154.57 157.626C154.523 157.718 154.523 157.858 154.523 157.904C154.523 158.182 154.616 158.368 154.894 158.368C155.358 158.368 156.797 157.254 157.354 157.254C157.493 157.254 157.632 157.301 157.632 157.394C157.632 157.997 154.152 160.271 153.177 160.271C152.76 160.271 152.481 160.085 152.481 159.575C152.481 159.343 152.528 159.111 152.621 158.786C154.755 152.429 155.266 151.222 155.266 150.387C155.266 150.109 155.173 150.109 155.173 149.877C155.173 149.784 155.219 149.598 155.266 149.366C156.286 146.304 156.89 145.422 158.56 145.422C158.838 145.422 159.07 145.515 159.117 145.747C158.374 147.325 155.915 151.501 154.57 157.626ZM159.627 141.849C159.442 142.36 159.163 143.102 158.606 143.241C157.91 143.241 157.864 142.592 157.864 141.988C157.864 140.921 159.906 139.344 160.973 139.344C161.066 139.344 161.159 139.39 161.205 139.436C161.205 140.272 160.045 140.875 159.627 141.849Z" fill="#FA8E89"/>
<path d="M166.17 159.621C166.17 160.039 166.263 160.317 166.449 160.317C166.681 160.317 167.655 159.575 167.887 159.575C168.026 159.575 168.119 159.667 168.119 159.807C168.119 160.41 166.773 161.384 165.706 161.384C165.01 161.384 164.639 160.967 164.639 159.76C164.639 156.512 167.284 150.99 168.305 148.253C168.397 147.974 168.49 147.696 168.49 147.51C168.49 147.417 168.444 147.325 168.397 147.325C168.258 147.325 168.026 147.51 167.609 148.021C165.892 149.969 160.184 158.043 160.045 159.528C159.999 159.853 158.839 160.735 158.235 160.735C158.05 160.735 157.957 160.642 157.957 160.456C158.05 160.595 160.695 152.754 161.205 151.083C161.298 150.758 161.344 150.526 161.344 150.387C161.344 150.109 161.252 150.109 161.252 149.877C161.252 149.784 161.298 149.598 161.344 149.366C162.412 146.304 162.876 145.422 164.592 145.422C164.871 145.422 165.103 145.515 165.149 145.747C164.453 147.232 162.18 151.918 161.53 154.749C163.061 152.289 167.748 144.772 170.857 144.772C171.274 144.772 171.599 144.865 171.599 145.283C171.599 145.468 171.506 145.747 171.321 146.025C168.954 150.062 166.17 156.698 166.17 159.621Z" fill="#FA8E89"/>
<path d="M179.209 149.459C179.209 148.763 179.302 147.974 179.302 147.371C179.302 146.165 179.116 145.376 178.188 145.376C177.306 145.376 177.167 146.165 177.167 146.907C176.982 146.861 176.796 146.814 176.61 146.814C173.548 146.814 170.207 152.522 170.207 157.394C170.207 159.389 170.764 160.271 172.249 160.271C174.662 160.271 177.167 157.904 178.466 154.192C178.652 153.682 178.93 151.547 179.07 150.805H179.395C179.58 150.805 179.812 150.805 179.951 150.619C179.998 150.526 179.998 150.48 179.998 150.387C180.044 149.969 179.395 149.598 179.209 149.459ZM172.806 159.064C172.249 159.064 171.831 158.647 171.831 157.719C171.831 156.419 172.388 154.47 172.806 153.171C173.27 151.779 174.847 148.067 176.657 148.067C177.538 148.067 176.796 150.48 177.678 150.712C177.678 155.445 174.476 159.064 172.806 159.064Z" fill="#FA8E89"/>
<path d="M173.687 160.039L173.548 159.946C173.037 159.575 172.156 159.946 171.877 160.642C171.645 161.245 172.388 162.173 172.759 163.147C172.388 163.055 171.97 163.008 171.831 163.101C169.882 164.075 163.015 169.551 161.39 173.541C160.555 175.629 161.53 177.021 163.015 178.135C166.309 180.548 172.666 181.012 174.522 177.81C174.661 177.532 174.8 177.207 174.94 176.836C176.796 172.335 176.1 163.704 173.687 160.039ZM172.944 176.233C172.016 178.181 166.402 177.764 163.989 176.001C162.783 175.119 162.551 174.052 163.061 172.706C164.546 169.04 171.599 164.679 173.501 163.333C174.429 166.767 174.708 171.778 173.223 175.583L172.944 176.233Z" fill="#FA8E89"/>
<path d="M69.3768 145.979C70.2584 145.979 71.6505 145.886 71.8825 145.84C71.5577 147.093 66.2679 163.472 66.4535 164.4C66.6391 165.328 68.2168 164.4 68.2168 164.4C68.4024 163.983 68.5416 163.565 68.7272 163.055C69.8872 159.621 73.2281 146.582 73.5529 145.701C75.1306 145.701 78.5643 145.469 78.5643 144.958C78.5643 144.865 78.2859 144.726 77.4971 144.726H73.8313C74.5738 141.896 75.5018 139.483 76.3834 137.256C76.9866 135.771 78.0539 135.26 79.0283 135.26C80.4668 135.26 80.7916 136.745 80.9308 136.745C81.2556 136.745 81.6732 135.91 81.6732 135.26C81.6732 134.889 81.534 134.518 81.07 134.425C78.5643 134.611 76.1514 134.1 74.481 137.58C73.9241 138.74 72.3929 143.845 72.1145 144.726H69.7016C69.3304 144.726 68.4024 145.283 68.4024 145.654C68.4952 145.84 68.7272 145.979 69.3768 145.979Z" fill="#FA8E89"/>
<path d="M18.5208 163.426C17.7784 163.519 15.8295 164.122 15.5511 164.725C15.4583 164.957 15.4583 165.328 15.7367 165.468C15.9223 165.56 16.1079 165.514 16.2471 165.421C19.0776 164.308 21.4905 163.844 24.785 164.029C25.0634 164.029 25.6202 164.076 25.7594 163.797C25.8522 163.612 25.6666 163.426 25.481 163.333C24.9242 163.055 21.9545 162.962 21.1193 162.962" fill="#F89462"/>
<path d="M5.48181 154.192C12.2564 153.821 19.0774 154.006 25.8984 153.914C25.8984 153.914 32.9051 153.542 27.0121 152.614L3.25454 152.522C3.25454 152.522 -0.0863674 152.429 0.0064355 153.867C0.0064355 153.867 -0.411177 154.517 5.48181 154.192Z" fill="#FA8E89"/>
<path d="M17.5 134.007C16.5255 136.049 15.8295 136.792 14.5303 139.019C14.5303 139.019 13.7415 140.921 15.6439 139.808L19.5416 134.239C19.5416 134.239 20.2377 133.358 19.0312 132.615C19.0776 132.615 18.2888 132.43 17.5 134.007Z" fill="#FA8E89"/>
<path d="M22.6041 162.869C22.6041 162.869 26.409 139.297 24.9706 137.627C24.9706 137.627 24.321 134.007 16.5255 136.003C16.5255 136.003 -7.69603 169.041 5.15717 179.713C5.15717 179.713 10.0293 180.734 5.57478 177.718C5.57478 177.718 -3.28789 166.488 17.964 137.07C17.964 137.07 22.7433 133.915 22.6969 143.427C22.6505 152.939 20.0984 163.472 20.0984 163.472L22.6041 162.869Z" fill="#FA8E89"/>
<path d="M26.6079 169.484H28.464V180.502H26.6079V169.484Z" fill="#F6F1EB"/>
<path d="M34.2409 180.605C33.4391 180.605 32.7165 180.432 32.0731 180.086C31.4296 179.739 30.9248 179.259 30.5585 178.646C30.2022 178.022 30.024 177.319 30.024 176.537C30.024 175.755 30.2022 175.057 30.5585 174.443C30.9248 173.83 31.4296 173.35 32.0731 173.003C32.7165 172.657 33.4391 172.483 34.2409 172.483C35.0527 172.483 35.7802 172.657 36.4237 173.003C37.0671 173.35 37.567 173.83 37.9234 174.443C38.2896 175.057 38.4728 175.755 38.4728 176.537C38.4728 177.319 38.2896 178.022 37.9234 178.646C37.567 179.259 37.0671 179.739 36.4237 180.086C35.7802 180.432 35.0527 180.605 34.2409 180.605ZM34.2409 179.017C34.924 179.017 35.4882 178.789 35.9337 178.334C36.3791 177.878 36.6019 177.279 36.6019 176.537C36.6019 175.795 36.3791 175.196 35.9337 174.74C35.4882 174.285 34.924 174.057 34.2409 174.057C33.5579 174.057 32.9937 174.285 32.5482 174.74C32.1127 175.196 31.8949 175.795 31.8949 176.537C31.8949 177.279 32.1127 177.878 32.5482 178.334C32.9937 178.789 33.5579 179.017 34.2409 179.017Z" fill="#F6F1EB"/>
<path d="M47.2316 172.572L43.8313 180.502H41.9159L38.5156 172.572H40.4459L42.9107 178.452L45.4498 172.572H47.2316Z" fill="#F6F1EB"/>
<path d="M55.4053 176.582C55.4053 176.71 55.3954 176.893 55.3756 177.131H49.1541C49.263 177.715 49.5452 178.18 50.0005 178.527C50.4658 178.863 51.0399 179.032 51.7229 179.032C52.594 179.032 53.3117 178.744 53.876 178.17L54.8708 179.314C54.5144 179.739 54.064 180.061 53.5196 180.279C52.9751 180.497 52.3614 180.605 51.6784 180.605C50.8073 180.605 50.0401 180.432 49.3769 180.086C48.7136 179.739 48.1989 179.259 47.8326 178.646C47.4763 178.022 47.2981 177.319 47.2981 176.537C47.2981 175.765 47.4713 175.072 47.8178 174.458C48.1741 173.835 48.6641 173.35 49.2878 173.003C49.9114 172.657 50.6142 172.483 51.3963 172.483C52.1684 172.483 52.8564 172.657 53.4602 173.003C54.0739 173.34 54.5491 173.82 54.8856 174.443C55.2321 175.057 55.4053 175.77 55.4053 176.582ZM51.3963 173.968C50.8023 173.968 50.2975 174.146 49.8817 174.503C49.4759 174.849 49.2284 175.315 49.1393 175.899H53.6384C53.5592 175.324 53.3167 174.859 52.9108 174.503C52.5049 174.146 52.0001 173.968 51.3963 173.968Z" fill="#F6F1EB"/>
<path d="M64.0685 170.88C63.2865 170.88 62.8955 171.305 62.8955 172.157V172.632H65.0782V174.117H62.9549V180.502H61.0988V174.117H59.7921V172.632H61.0988V172.127C61.0988 171.276 61.3463 170.608 61.8412 170.123C62.3362 169.628 63.034 169.38 63.9349 169.38C64.6476 169.38 65.2069 169.524 65.6127 169.811L65.093 171.206C64.7763 170.989 64.4348 170.88 64.0685 170.88Z" fill="#F6F1EB"/>
<path d="M69.5524 180.605C68.7506 180.605 68.028 180.432 67.3846 180.086C66.7411 179.739 66.2363 179.259 65.87 178.646C65.5137 178.022 65.3355 177.319 65.3355 176.537C65.3355 175.755 65.5137 175.057 65.87 174.443C66.2363 173.83 66.7411 173.35 67.3846 173.003C68.028 172.657 68.7506 172.483 69.5524 172.483C70.3642 172.483 71.0917 172.657 71.7352 173.003C72.3786 173.35 72.8785 173.83 73.2349 174.443C73.6011 175.057 73.7843 175.755 73.7843 176.537C73.7843 177.319 73.6011 178.022 73.2349 178.646C72.8785 179.259 72.3786 179.739 71.7352 180.086C71.0917 180.432 70.3642 180.605 69.5524 180.605ZM69.5524 179.017C70.2355 179.017 70.7997 178.789 71.2452 178.334C71.6906 177.878 71.9134 177.279 71.9134 176.537C71.9134 175.795 71.6906 175.196 71.2452 174.74C70.7997 174.285 70.2355 174.057 69.5524 174.057C68.8694 174.057 68.3052 174.285 67.8597 174.74C67.4242 175.196 67.2064 175.795 67.2064 176.537C67.2064 177.279 67.4242 177.878 67.8597 178.334C68.3052 178.789 68.8694 179.017 69.5524 179.017Z" fill="#F6F1EB"/>
<path d="M77.1034 173.731C77.6379 172.899 78.5783 172.483 79.9246 172.483V174.25C79.7662 174.221 79.6226 174.206 79.494 174.206C78.7713 174.206 78.2071 174.419 77.8012 174.844C77.3954 175.26 77.1924 175.864 77.1924 176.656V180.502H75.3364V172.572H77.1034V173.731Z" fill="#F6F1EB"/>
<path d="M92.7728 175.097C93.3469 175.285 93.8023 175.602 94.1388 176.047C94.4754 176.483 94.6437 177.027 94.6437 177.68C94.6437 178.581 94.2972 179.279 93.6043 179.774C92.9114 180.259 91.9017 180.502 90.5752 180.502H85.4079V170.108H90.2782C91.5057 170.108 92.4511 170.35 93.1143 170.835C93.7775 171.31 94.1091 171.969 94.1091 172.81C94.1091 173.325 93.9903 173.78 93.7528 174.176C93.5152 174.572 93.1885 174.879 92.7728 175.097ZM87.3382 171.622V174.488H90.0704C90.7435 174.488 91.2582 174.369 91.6146 174.132C91.9809 173.884 92.164 173.528 92.164 173.062C92.164 172.587 91.9809 172.231 91.6146 171.993C91.2582 171.746 90.7435 171.622 90.0704 171.622H87.3382ZM90.4564 178.987C91.9512 178.987 92.6985 178.487 92.6985 177.487C92.6985 176.488 91.9512 175.988 90.4564 175.988H87.3382V178.987H90.4564Z" fill="#F6F1EB"/>
<path d="M98.0698 173.731C98.6044 172.899 99.5448 172.483 100.891 172.483V174.25C100.733 174.221 100.589 174.206 100.46 174.206C99.7378 174.206 99.1736 174.419 98.7677 174.844C98.3619 175.26 98.1589 175.864 98.1589 176.656V180.502H96.3029V172.572H98.0698V173.731Z" fill="#F6F1EB"/>
<path d="M105.228 172.483C106.396 172.483 107.287 172.766 107.901 173.33C108.525 173.884 108.837 174.726 108.837 175.854V180.502H107.084V179.536C106.857 179.883 106.53 180.15 106.104 180.338C105.689 180.516 105.184 180.605 104.59 180.605C103.996 180.605 103.476 180.507 103.031 180.309C102.585 180.101 102.239 179.819 101.991 179.462C101.754 179.096 101.635 178.685 101.635 178.23C101.635 177.517 101.897 176.948 102.422 176.522C102.957 176.087 103.793 175.869 104.931 175.869H106.981V175.75C106.981 175.196 106.812 174.77 106.476 174.473C106.149 174.176 105.659 174.028 105.006 174.028C104.56 174.028 104.12 174.097 103.684 174.236C103.259 174.374 102.897 174.567 102.6 174.815L101.873 173.463C102.288 173.147 102.788 172.904 103.372 172.736C103.956 172.568 104.575 172.483 105.228 172.483ZM104.976 179.254C105.441 179.254 105.852 179.15 106.208 178.942C106.575 178.725 106.832 178.418 106.981 178.022V177.101H105.065C103.996 177.101 103.461 177.453 103.461 178.156C103.461 178.492 103.595 178.759 103.862 178.957C104.13 179.155 104.501 179.254 104.976 179.254Z" fill="#F6F1EB"/>
<path d="M117.188 179.017V180.502H110.343V179.329L114.693 174.057H110.432V172.572H117.069V173.746L112.703 179.017H117.188Z" fill="#F6F1EB"/>
<path d="M118.676 172.572H120.532V180.502H118.676V172.572ZM119.611 171.266C119.275 171.266 118.993 171.162 118.765 170.954C118.537 170.736 118.423 170.469 118.423 170.152C118.423 169.835 118.537 169.573 118.765 169.365C118.993 169.147 119.275 169.039 119.611 169.039C119.948 169.039 120.23 169.143 120.458 169.35C120.685 169.548 120.799 169.801 120.799 170.108C120.799 170.434 120.685 170.711 120.458 170.939C120.24 171.157 119.958 171.266 119.611 171.266Z" fill="#F6F1EB"/>
<path d="M122.745 169.484H124.601V180.502H122.745V169.484Z" fill="#F6F1EB"/>
<path d="M126.815 172.572H128.671V180.502H126.815V172.572ZM127.75 171.266C127.414 171.266 127.132 171.162 126.904 170.954C126.676 170.736 126.562 170.469 126.562 170.152C126.562 169.835 126.676 169.573 126.904 169.365C127.132 169.147 127.414 169.039 127.75 169.039C128.087 169.039 128.369 169.143 128.597 169.35C128.824 169.548 128.938 169.801 128.938 170.108C128.938 170.434 128.824 170.711 128.597 170.939C128.379 171.157 128.097 171.266 127.75 171.266Z" fill="#F6F1EB"/>
<path d="M133.913 172.483C135.081 172.483 135.972 172.766 136.586 173.33C137.21 173.884 137.521 174.726 137.521 175.854V180.502H135.769V179.536C135.542 179.883 135.215 180.15 134.789 180.338C134.374 180.516 133.869 180.605 133.275 180.605C132.681 180.605 132.161 180.507 131.716 180.309C131.27 180.101 130.924 179.819 130.676 179.462C130.439 179.096 130.32 178.685 130.32 178.23C130.32 177.517 130.582 176.948 131.107 176.522C131.641 176.087 132.478 175.869 133.616 175.869H135.665V175.75C135.665 175.196 135.497 174.77 135.16 174.473C134.834 174.176 134.344 174.028 133.69 174.028C133.245 174.028 132.805 174.097 132.369 174.236C131.943 174.374 131.582 174.567 131.285 174.815L130.557 173.463C130.973 173.147 131.473 172.904 132.057 172.736C132.641 172.568 133.26 172.483 133.913 172.483ZM133.661 179.254C134.126 179.254 134.537 179.15 134.893 178.942C135.259 178.725 135.517 178.418 135.665 178.022V177.101H133.75C132.681 177.101 132.146 177.453 132.146 178.156C132.146 178.492 132.28 178.759 132.547 178.957C132.814 179.155 133.186 179.254 133.661 179.254Z" fill="#F6F1EB"/>
<path d="M144.18 172.483C145.18 172.483 145.981 172.775 146.585 173.359C147.189 173.944 147.491 174.81 147.491 175.958V180.502H145.635V176.196C145.635 175.503 145.472 174.983 145.145 174.636C144.818 174.28 144.353 174.102 143.749 174.102C143.066 174.102 142.527 174.31 142.131 174.726C141.735 175.131 141.537 175.72 141.537 176.492V180.502H139.681V172.572H141.448V173.597C141.755 173.231 142.141 172.954 142.606 172.766C143.071 172.577 143.596 172.483 144.18 172.483Z" fill="#F6F1EB"/>
</svg>
